{
  "items": [
    {
      "code": 1,
      "name": "Equity Fund 1",
      "house": "Test AMC",
      "category": "Equity",
      "subCategory": "Barge Cap",
      "plan": "Growth",
      "type": "Open Ended"
    },
    {
      "code": 2,
      "name": "Equity Fund 2",
      "house": "Test AMC",
      "category": "Equity",
      "subCategory": "Aid Cap",
      "plan": "Growth",
      "type": "Open Ended"
    }
  ],
  "totalCount": 4,
  "pageNumber": 1,
  "totalPages": 2,
  "hasNextPage": true,
  "hasPreviousPage": false
}